// Jest Snapshot v1, https://goo.gl/fbAQLP

exports[`entityModule.js keyed reducer should handle create entity success 1`] = `
Object {
  "123": Object {
    "data": Object {
      "entity": true,
      "id": "123",
    },
    "error": undefined,
    "isCreating": false,
    "isDeleting": false,
    "isFetching": false,
    "isRefetching": false,
    "isRequesting": false,
    "isUpdating": false,
  },
  "new": Object {
    "error": Object {
      "error": true,
    },
    "isCreating": false,
    "isDeleting": false,
    "isFetching": false,
    "isRefetching": false,
    "isRequesting": false,
    "isUpdating": false,
  },
}
`;

exports[`entityModule.js keyed reducer should handle delete entity success 1`] = `
Object {
  "new": Object {
    "error": Object {
      "error": true,
    },
    "isCreating": false,
    "isDeleting": false,
    "isFetching": false,
    "isRefetching": false,
    "isRequesting": false,
    "isUpdating": false,
  },
}
`;

exports[`entityModule.js keyed reducer should handle request entity success 1`] = `
Object {
  "123": Object {
    "data": Object {
      "entity": true,
      "id": "123",
    },
    "error": undefined,
    "isCreating": false,
    "isDeleting": false,
    "isFetching": false,
    "isRefetching": false,
    "isRequesting": false,
    "isUpdating": false,
  },
  "new": Object {
    "error": Object {
      "error": true,
    },
    "isCreating": false,
    "isDeleting": false,
    "isFetching": false,
    "isRefetching": false,
    "isRequesting": false,
    "isUpdating": false,
  },
}
`;

exports[`entityModule.js keyed reducer should handle update entity success 1`] = `
Object {
  "123": Object {
    "data": Object {
      "entity": true,
      "id": "123",
    },
    "error": undefined,
    "isCreating": false,
    "isDeleting": false,
    "isFetching": false,
    "isRefetching": false,
    "isRequesting": false,
    "isUpdating": false,
  },
  "new": Object {
    "error": Object {
      "error": true,
    },
    "isCreating": false,
    "isDeleting": false,
    "isFetching": false,
    "isRefetching": false,
    "isRequesting": false,
    "isUpdating": false,
  },
}
`;

exports[`entityModule.js keyed reducer should have a maximum number of entities 1`] = `
Object {
  "95": Object {
    "data": Object {
      "entity": true,
      "id": "95",
    },
    "error": undefined,
    "isCreating": false,
    "isDeleting": false,
    "isFetching": false,
    "isRefetching": false,
    "isRequesting": false,
    "isUpdating": false,
  },
  "96": Object {
    "data": Object {
      "entity": true,
      "id": "96",
    },
    "error": undefined,
    "isCreating": false,
    "isDeleting": false,
    "isFetching": false,
    "isRefetching": false,
    "isRequesting": false,
    "isUpdating": false,
  },
  "97": Object {
    "data": Object {
      "entity": true,
      "id": "97",
    },
    "error": undefined,
    "isCreating": false,
    "isDeleting": false,
    "isFetching": false,
    "isRefetching": false,
    "isRequesting": false,
    "isUpdating": false,
  },
  "98": Object {
    "data": Object {
      "entity": true,
      "id": "98",
    },
    "error": undefined,
    "isCreating": false,
    "isDeleting": false,
    "isFetching": false,
    "isRefetching": false,
    "isRequesting": false,
    "isUpdating": false,
  },
  "99": Object {
    "data": Object {
      "entity": true,
      "id": "99",
    },
    "error": undefined,
    "isCreating": false,
    "isDeleting": false,
    "isFetching": false,
    "isRefetching": false,
    "isRequesting": false,
    "isUpdating": false,
  },
}
`;
